{
	"frames": {

		"hop1.png": {
			"frame": {
				"x": 2,
				"y": 2,
				"w": 315,
				"h": 857
			},
			"rotated": false,
			"trimmed": true,
			"spriteSourceSize": {
				"x": 0,
				"y": 36,
				"w": 315,
				"h": 857
			},
			"sourceSize": {
				"w": 1180,
				"h": 893
			}
		},
		"hop2.png": {
			"frame": {
				"x": 319,
				"y": 2,
				"w": 274,
				"h": 747
			},
			"rotated": false,
			"trimmed": true,
			"spriteSourceSize": {
				"x": 148,
				"y": 27,
				"w": 274,
				"h": 747
			},
			"sourceSize": {
				"w": 1180,
				"h": 893
			}
		},
		"hop3.png": {
			"frame": {
				"x": 595,
				"y": 2,
				"w": 247,
				"h": 672
			},
			"rotated": false,
			"trimmed": true,
			"spriteSourceSize": {
				"x": 252,
				"y": 42,
				"w": 247,
				"h": 672
			},
			"sourceSize": {
				"w": 1180,
				"h": 893
			}
		},
		"hop4.png": {
			"frame": {
				"x": 2,
				"y": 861,
				"w": 355,
				"h": 661
			},
			"rotated": false,
			"trimmed": true,
			"spriteSourceSize": {
				"x": 370,
				"y": 84,
				"w": 355,
				"h": 661
			},
			"sourceSize": {
				"w": 1180,
				"h": 893
			}
		},
		"hop5.png": {
			"frame": {
				"x": 359,
				"y": 861,
				"w": 216,
				"h": 587
			},
			"rotated": false,
			"trimmed": true,
			"spriteSourceSize": {
				"x": 582,
				"y": 43,
				"w": 216,
				"h": 587
			},
			"sourceSize": {
				"w": 1180,
				"h": 893
			}
		},
		"hop6.png": {
			"frame": {
				"x": 577,
				"y": 861,
				"w": 202,
				"h": 548
			},
			"rotated": false,
			"trimmed": true,
			"spriteSourceSize": {
				"x": 683,
				"y": 27,
				"w": 202,
				"h": 548
			},
			"sourceSize": {
				"w": 1180,
				"h": 893
			}
		},
		"hop7.png": {
			"frame": {
				"x": 2,
				"y": 1524,
				"w": 272,
				"h": 505
			},
			"rotated": false,
			"trimmed": true,
			"spriteSourceSize": {
				"x": 789,
				"y": 84,
				"w": 272,
				"h": 505
			},
			"sourceSize": {
				"w": 1180,
				"h": 893
			}
		},
		"hop8.png": {
			"frame": {
				"x": 276,
				"y": 1524,
				"w": 183,
				"h": 498
			},
			"rotated": false,
			"trimmed": true,
			"spriteSourceSize": {
				"x": 931,
				"y": 0,
				"w": 183,
				"h": 498
			},
			"sourceSize": {
				"w": 1180,
				"h": 893
			}
		},
		"hop9.png": {
			"frame": {
				"x": 461,
				"y": 1524,
				"w": 165,
				"h": 448
			},
			"rotated": false,
			"trimmed": true,
			"spriteSourceSize": {
				"x": 1015,
				"y": 16,
				"w": 165,
				"h": 448
			},
			"sourceSize": {
				"w": 1180,
				"h": 893
			}
		}
	},
	"meta": {
		"app": "http://www.mokgames.com/texturepacker/",
		"version": "1.0",
		"image": "sprite_boys.png",
		"format": "RGBA8888",
		"size": {
			"w": 1024,
			"h": 2048
		},
		"scale": 1
	}
}