{
	"frames": {

		"arms.png": {
			"frame": {
				"x": 2,
				"y": 151,
				"w": 278,
				"h": 292
			},
			"rotated": false,
			"trimmed": true,
			"spriteSourceSize": {
				"x": 0,
				"y": 0,
				"w": 278,
				"h": 292
			},
			"sourceSize": {
				"w": 278,
				"h": 292
			}
		},
		"chin.png": {
			"frame": {
				"x": 406,
				"y": 789,
				"w": 65,
				"h": 28
			},
			"rotated": false,
			"trimmed": true,
			"spriteSourceSize": {
				"x": 0,
				"y": 0,
				"w": 65,
				"h": 28
			},
			"sourceSize": {
				"w": 65,
				"h": 28
			}
		},
		"botheyes.png": {
			"frame": {
				"x": 430,
				"y": 734,
				"w": 103,
				"h": 25
			},
			"rotated": false,
			"trimmed": true,
			"spriteSourceSize": {
				"x": 0,
				"y": 0,
				"w": 103,
				"h": 25
			},
			"sourceSize": {
				"w": 103,
				"h": 25
			}
		},
		"circle.png": {
			"frame": {
				"x": 229,
				"y": 445,
				"w": 72,
				"h": 72
			},
			"rotated": false,
			"trimmed": true,
			"spriteSourceSize": {
				"x": 0,
				"y": 0,
				"w": 72,
				"h": 72
			},
			"sourceSize": {
				"w": 72,
				"h": 72
			}
		},
		"ear.png": {
			"frame": {
				"x": 493,
				"y": 474,
				"w": 39,
				"h": 55
			},
			"rotated": false,
			"trimmed": true,
			"spriteSourceSize": {
				"x": 0,
				"y": 1,
				"w": 39,
				"h": 55
			},
			"sourceSize": {
				"w": 40,
				"h": 57
			}
		},
		"elbow.png": {
			"frame": {
				"x": 315,
				"y": 833,
				"w": 51,
				"h": 81
			},
			"rotated": false,
			"trimmed": true,
			"spriteSourceSize": {
				"x": 0,
				"y": 0,
				"w": 51,
				"h": 81
			},
			"sourceSize": {
				"w": 51,
				"h": 81
			}
		},
		"feet.png": {
			"frame": {
				"x": 2,
				"y": 2,
				"w": 311,
				"h": 147
			},
			"rotated": false,
			"trimmed": true,
			"spriteSourceSize": {
				"x": 0,
				"y": 0,
				"w": 311,
				"h": 147
			},
			"sourceSize": {
				"w": 311,
				"h": 147
			}
		},
		"forehead.png": {
			"frame": {
				"x": 315,
				"y": 734,
				"w": 113,
				"h": 53
			},
			"rotated": false,
			"trimmed": true,
			"spriteSourceSize": {
				"x": 0,
				"y": 0,
				"w": 113,
				"h": 53
			},
			"sourceSize": {
				"w": 113,
				"h": 53
			}
		},
		"hair.png": {
			"frame": {
				"x": 2,
				"y": 719,
				"w": 264,
				"h": 221
			},
			"rotated": false,
			"trimmed": true,
			"spriteSourceSize": {
				"x": 0,
				"y": 0,
				"w": 264,
				"h": 221
			},
			"sourceSize": {
				"w": 264,
				"h": 221
			}
		},
		"hands.png": {
			"frame": {
				"x": 315,
				"y": 2,
				"w": 219,
				"h": 182
			},
			"rotated": false,
			"trimmed": true,
			"spriteSourceSize": {
				"x": 0,
				"y": 0,
				"w": 219,
				"h": 182
			},
			"sourceSize": {
				"w": 219,
				"h": 182
			}
		},
		"heels.png": {
			"frame": {
				"x": 315,
				"y": 186,
				"w": 201,
				"h": 73
			},
			"rotated": false,
			"trimmed": true,
			"spriteSourceSize": {
				"x": 0,
				"y": 0,
				"w": 201,
				"h": 73
			},
			"sourceSize": {
				"w": 201,
				"h": 73
			}
		},
		"knees.png": {
			"frame": {
				"x": 315,
				"y": 643,
				"w": 170,
				"h": 89
			},
			"rotated": false,
			"trimmed": true,
			"spriteSourceSize": {
				"x": 0,
				"y": 0,
				"w": 170,
				"h": 89
			},
			"sourceSize": {
				"w": 170,
				"h": 89
			}
		},
		"legs.png": {
			"frame": {
				"x": 2,
				"y": 445,
				"w": 225,
				"h": 272
			},
			"rotated": false,
			"trimmed": true,
			"spriteSourceSize": {
				"x": 0,
				"y": 0,
				"w": 225,
				"h": 272
			},
			"sourceSize": {
				"w": 225,
				"h": 272
			}
		},
		"mouth.png": {
			"frame": {
				"x": 315,
				"y": 789,
				"w": 89,
				"h": 42
			},
			"rotated": false,
			"trimmed": true,
			"spriteSourceSize": {
				"x": 0,
				"y": 0,
				"w": 89,
				"h": 42
			},
			"sourceSize": {
				"w": 89,
				"h": 42
			}
		},
		"neck.png": {
			"frame": {
				"x": 368,
				"y": 833,
				"w": 79,
				"h": 62
			},
			"rotated": false,
			"trimmed": true,
			"spriteSourceSize": {
				"x": 0,
				"y": 0,
				"w": 79,
				"h": 62
			},
			"sourceSize": {
				"w": 79,
				"h": 62
			}
		},
		"nose.png": {
			"frame": {
				"x": 493,
				"y": 414,
				"w": 33,
				"h": 58
			},
			"rotated": false,
			"trimmed": true,
			"spriteSourceSize": {
				"x": 0,
				"y": 0,
				"w": 33,
				"h": 58
			},
			"sourceSize": {
				"w": 33,
				"h": 58
			}
		},
		"shoulder.png": {
			"frame": {
				"x": 315,
				"y": 261,
				"w": 200,
				"h": 74
			},
			"rotated": false,
			"trimmed": true,
			"spriteSourceSize": {
				"x": 0,
				"y": 0,
				"w": 200,
				"h": 74
			},
			"sourceSize": {
				"w": 200,
				"h": 74
			}
		},
		"stomach.png": {
			"frame": {
				"x": 315,
				"y": 414,
				"w": 176,
				"h": 158
			},
			"rotated": false,
			"trimmed": true,
			"spriteSourceSize": {
				"x": 0,
				"y": 0,
				"w": 176,
				"h": 158
			},
			"sourceSize": {
				"w": 176,
				"h": 158
			}
		},
		"thighs.png": {
			"frame": {
				"x": 315,
				"y": 337,
				"w": 188,
				"h": 75
			},
			"rotated": false,
			"trimmed": true,
			"spriteSourceSize": {
				"x": 0,
				"y": 0,
				"w": 188,
				"h": 75
			},
			"sourceSize": {
				"w": 188,
				"h": 75
			}
		},
		"toes.png": {
			"frame": {
				"x": 315,
				"y": 574,
				"w": 172,
				"h": 67
			},
			"rotated": false,
			"trimmed": true,
			"spriteSourceSize": {
				"x": 0,
				"y": 0,
				"w": 172,
				"h": 67
			},
			"sourceSize": {
				"w": 172,
				"h": 67
			}
		}
	},
	"meta": {
		"app": "http://www.mokgames.com/texturepacker/",
		"version": "1.0",
		"image": "sprite_body_parts.png",
		"format": "RGBA8888",
		"size": {
			"w": 1024,
			"h": 1024
		},
		"scale": 1
	}
}