{
	"frames": {

		"arm1.png": {
			"frame": {
				"x": 2,
				"y": 1128,
				"w": 98,
				"h": 346
			},
			"rotated": false,
			"trimmed": true,
			"spriteSourceSize": {
				"x": 149,
				"y": 0,
				"w": 98,
				"h": 346
			},
			"sourceSize": {
				"w": 247,
				"h": 346
			}
		},
		"arm2.png": {
			"frame": {
				"x": 997,
				"y": 938,
				"w": 206,
				"h": 172
			},
			"rotated": false,
			"trimmed": true,
			"spriteSourceSize": {
				"x": 0,
				"y": 5,
				"w": 206,
				"h": 172
			},
			"sourceSize": {
				"w": 247,
				"h": 346
			}
		},
		"eyes1.png": {
			"frame": {
				"x": 1342,
				"y": 938,
				"w": 135,
				"h": 40
			},
			"rotated": false,
			"trimmed": true,
			"spriteSourceSize": {
				"x": 0,
				"y": 0,
				"w": 135,
				"h": 40
			},
			"sourceSize": {
				"w": 135,
				"h": 41
			}
		},
		"eyes2.png": {
			"frame": {
				"x": 1205,
				"y": 938,
				"w": 135,
				"h": 40
			},
			"rotated": false,
			"trimmed": true,
			"spriteSourceSize": {
				"x": 0,
				"y": 0,
				"w": 135,
				"h": 40
			},
			"sourceSize": {
				"w": 135,
				"h": 41
			}
		},
		"mouth1.png": {
			"frame": {
				"x": 1562,
				"y": 938,
				"w": 80,
				"h": 19
			},
			"rotated": false,
			"trimmed": true,
			"spriteSourceSize": {
				"x": 1,
				"y": 3,
				"w": 80,
				"h": 19
			},
			"sourceSize": {
				"w": 82,
				"h": 39
			}
		},
		"fb1.png": {
			"frame": {
				"x": 2,
				"y": 2,
				"w": 567,
				"h": 1124
			},
			"rotated": false,
			"trimmed": true,
			"spriteSourceSize": {
				"x": 0,
				"y": 27,
				"w": 567,
				"h": 1124
			},
			"sourceSize": {
				"w": 659,
				"h": 1152
			}
		},
		"mouth2.png": {
			"frame": {
				"x": 1479,
				"y": 938,
				"w": 81,
				"h": 37
			},
			"rotated": false,
			"trimmed": true,
			"spriteSourceSize": {
				"x": 0,
				"y": 2,
				"w": 81,
				"h": 37
			},
			"sourceSize": {
				"w": 82,
				"h": 39
			}
		},
		"mouth3.png": {
			"frame": {
				"x": 1205,
				"y": 980,
				"w": 30,
				"h": 39
			},
			"rotated": false,
			"trimmed": true,
			"spriteSourceSize": {
				"x": 31,
				"y": 0,
				"w": 30,
				"h": 39
			},
			"sourceSize": {
				"w": 82,
				"h": 39
			}
		},
		"girl-base.png": {
			"frame": {
				"x": 571,
				"y": 2,
				"w": 424,
				"h": 1124
			},
			"rotated": false,
			"trimmed": true,
			"spriteSourceSize": {
				"x": 0,
				"y": 28,
				"w": 424,
				"h": 1124
			},
			"sourceSize": {
				"w": 663,
				"h": 1153
			}
		},
		"mouth4.png": {
			"frame": {
				"x": 1278,
				"y": 980,
				"w": 26,
				"h": 21
			},
			"rotated": false,
			"trimmed": true,
			"spriteSourceSize": {
				"x": 31,
				"y": 3,
				"w": 26,
				"h": 21
			},
			"sourceSize": {
				"w": 82,
				"h": 39
			}
		},
		"mouth5.png": {
			"frame": {
				"x": 1237,
				"y": 980,
				"w": 39,
				"h": 23
			},
			"rotated": false,
			"trimmed": true,
			"spriteSourceSize": {
				"x": 25,
				"y": 0,
				"w": 39,
				"h": 23
			},
			"sourceSize": {
				"w": 82,
				"h": 39
			}
		},
		"girl-intro.png": {
			"frame": {
				"x": 997,
				"y": 2,
				"w": 997,
				"h": 934
			},
			"rotated": false,
			"trimmed": true,
			"spriteSourceSize": {
				"x": 0,
				"y": 0,
				"w": 997,
				"h": 934
			},
			"sourceSize": {
				"w": 997,
				"h": 934
			}
		}
	},
	"meta": {
		"app": "http://www.mokgames.com/texturepacker/",
		"version": "1.0",
		"image": "sprite_playground_2_1.png",
		"format": "RGBA8888",
		"size": {
			"w": 2048,
			"h": 2048
		},
		"scale": 1
	}
}