{
	"frames": {

		"picturehanger.png": {
			"frame": {
				"x": 302,
				"y": 1143,
				"w": 269,
				"h": 311
			},
			"rotated": false,
			"trimmed": true,
			"spriteSourceSize": {
				"x": 0,
				"y": 0,
				"w": 269,
				"h": 311
			},
			"sourceSize": {
				"w": 269,
				"h": 312
			}
		},
		"mouthOutro4.png": {
			"frame": {
				"x": 1748,
				"y": 889,
				"w": 32,
				"h": 32
			},
			"rotated": false,
			"trimmed": true,
			"spriteSourceSize": {
				"x": 25,
				"y": 6,
				"w": 32,
				"h": 32
			},
			"sourceSize": {
				"w": 78,
				"h": 38
			}
		},
		"mouthOutro3.png": {
			"frame": {
				"x": 1598,
				"y": 1092,
				"w": 49,
				"h": 25
			},
			"rotated": false,
			"trimmed": true,
			"spriteSourceSize": {
				"x": 24,
				"y": 5,
				"w": 49,
				"h": 25
			},
			"sourceSize": {
				"w": 78,
				"h": 38
			}
		},
		"mouthOutro2.png": {
			"frame": {
				"x": 1532,
				"y": 1061,
				"w": 75,
				"h": 29
			},
			"rotated": false,
			"trimmed": true,
			"spriteSourceSize": {
				"x": 3,
				"y": 0,
				"w": 75,
				"h": 29
			},
			"sourceSize": {
				"w": 78,
				"h": 38
			}
		},
		"mouthOutro1.png": {
			"frame": {
				"x": 1609,
				"y": 1061,
				"w": 74,
				"h": 18
			},
			"rotated": false,
			"trimmed": true,
			"spriteSourceSize": {
				"x": 0,
				"y": 3,
				"w": 74,
				"h": 18
			},
			"sourceSize": {
				"w": 78,
				"h": 38
			}
		},
		"mouth4.png": {
			"frame": {
				"x": 1748,
				"y": 923,
				"w": 27,
				"h": 28
			},
			"rotated": false,
			"trimmed": true,
			"spriteSourceSize": {
				"x": 18,
				"y": 5,
				"w": 27,
				"h": 28
			},
			"sourceSize": {
				"w": 66,
				"h": 33
			}
		},
		"mouth3.png": {
			"frame": {
				"x": 1748,
				"y": 865,
				"w": 42,
				"h": 22
			},
			"rotated": false,
			"trimmed": true,
			"spriteSourceSize": {
				"x": 3,
				"y": 3,
				"w": 42,
				"h": 22
			},
			"sourceSize": {
				"w": 66,
				"h": 33
			}
		},
		"mouth2.png": {
			"frame": {
				"x": 1532,
				"y": 1092,
				"w": 64,
				"h": 25
			},
			"rotated": false,
			"trimmed": true,
			"spriteSourceSize": {
				"x": 0,
				"y": 0,
				"w": 64,
				"h": 25
			},
			"sourceSize": {
				"w": 66,
				"h": 33
			}
		},
		"mouth1.png": {
			"frame": {
				"x": 1685,
				"y": 1061,
				"w": 62,
				"h": 15
			},
			"rotated": false,
			"trimmed": true,
			"spriteSourceSize": {
				"x": 4,
				"y": 3,
				"w": 62,
				"h": 15
			},
			"sourceSize": {
				"w": 66,
				"h": 33
			}
		},
		"feedback.png": {
			"frame": {
				"x": 1457,
				"y": 1061,
				"w": 73,
				"h": 80
			},
			"rotated": false,
			"trimmed": true,
			"spriteSourceSize": {
				"x": 1,
				"y": 0,
				"w": 73,
				"h": 80
			},
			"sourceSize": {
				"w": 74,
				"h": 80
			}
		},
		"barrier.png": {
			"frame": {
				"x": 2,
				"y": 306,
				"w": 1313,
				"h": 835
			},
			"rotated": false,
			"trimmed": true,
			"spriteSourceSize": {
				"x": 0,
				"y": 0,
				"w": 1313,
				"h": 835
			},
			"sourceSize": {
				"w": 1313,
				"h": 835
			}
		},
		"arm3.png": {
			"frame": {
				"x": 2,
				"y": 1143,
				"w": 298,
				"h": 323
			},
			"rotated": false,
			"trimmed": true,
			"spriteSourceSize": {
				"x": 0,
				"y": 75,
				"w": 298,
				"h": 323
			},
			"sourceSize": {
				"w": 325,
				"h": 398
			}
		},
		"arm2.png": {
			"frame": {
				"x": 1457,
				"y": 865,
				"w": 289,
				"h": 194
			},
			"rotated": false,
			"trimmed": true,
			"spriteSourceSize": {
				"x": 2,
				"y": 0,
				"w": 289,
				"h": 194
			},
			"sourceSize": {
				"w": 325,
				"h": 398
			}
		},
		"arm1.png": {
			"frame": {
				"x": 1317,
				"y": 306,
				"w": 138,
				"h": 234
			},
			"rotated": false,
			"trimmed": true,
			"spriteSourceSize": {
				"x": 186,
				"y": 65,
				"w": 138,
				"h": 234
			},
			"sourceSize": {
				"w": 325,
				"h": 398
			}
		},
		"keyboard.png": {
			"frame": {
				"x": 2,
				"y": 2,
				"w": 1453,
				"h": 302
			},
			"rotated": false,
			"trimmed": true,
			"spriteSourceSize": {
				"x": 0,
				"y": 0,
				"w": 1453,
				"h": 302
			},
			"sourceSize": {
				"w": 1453,
				"h": 302
			}
		},
		"man_body.png": {
			"frame": {
				"x": 1457,
				"y": 2,
				"w": 336,
				"h": 861
			},
			"rotated": false,
			"trimmed": true,
			"spriteSourceSize": {
				"x": 0,
				"y": 0,
				"w": 336,
				"h": 861
			},
			"sourceSize": {
				"w": 336,
				"h": 861
			}
		}
	},
	"meta": {
		"app": "http://www.mokgames.com/texturepacker/",
		"version": "1.0",
		"image": "sprite_1_2.png",
		"format": "RGBA8888",
		"size": {
			"w": 2048,
			"h": 2048
		},
		"scale": 1
	}
}
