{
	"frames": {

		"arm1.png": {
			"frame": {
				"x": 2,
				"y": 1528,
				"w": 335,
				"h": 216
			},
			"rotated": false,
			"trimmed": true,
			"spriteSourceSize": {
				"x": 47,
				"y": 33,
				"w": 335,
				"h": 216
			},
			"sourceSize": {
				"w": 477,
				"h": 392
			}
		},
		"arm2.png": {
			"frame": {
				"x": 2,
				"y": 1279,
				"w": 382,
				"h": 247
			},
			"rotated": false,
			"trimmed": true,
			"spriteSourceSize": {
				"x": 0,
				"y": 0,
				"w": 382,
				"h": 247
			},
			"sourceSize": {
				"w": 477,
				"h": 392
			}
		},
		"arm3.png": {
			"frame": {
				"x": 376,
				"y": 410,
				"w": 298,
				"h": 359
			},
			"rotated": false,
			"trimmed": true,
			"spriteSourceSize": {
				"x": 47,
				"y": 33,
				"w": 298,
				"h": 359
			},
			"sourceSize": {
				"w": 477,
				"h": 392
			}
		},
		"arm4.png": {
			"frame": {
				"x": 2,
				"y": 1061,
				"w": 430,
				"h": 216
			},
			"rotated": false,
			"trimmed": true,
			"spriteSourceSize": {
				"x": 47,
				"y": 33,
				"w": 430,
				"h": 216
			},
			"sourceSize": {
				"w": 477,
				"h": 392
			}
		},
		"intro_face1.png": {
			"frame": {
				"x": 707,
				"y": 809,
				"w": 168,
				"h": 197
			},
			"rotated": false,
			"trimmed": true,
			"spriteSourceSize": {
				"x": 1,
				"y": 0,
				"w": 168,
				"h": 197
			},
			"sourceSize": {
				"w": 170,
				"h": 198
			}
		},
		"intro_face2.png": {
			"frame": {
				"x": 707,
				"y": 610,
				"w": 168,
				"h": 197
			},
			"rotated": false,
			"trimmed": true,
			"spriteSourceSize": {
				"x": 1,
				"y": 0,
				"w": 168,
				"h": 197
			},
			"sourceSize": {
				"w": 170,
				"h": 198
			}
		},
		"introbody.png": {
			"frame": {
				"x": 2,
				"y": 410,
				"w": 372,
				"h": 649
			},
			"rotated": false,
			"trimmed": true,
			"spriteSourceSize": {
				"x": 0,
				"y": 0,
				"w": 372,
				"h": 649
			},
			"sourceSize": {
				"w": 372,
				"h": 649
			}
		},
		"mouth_outro_1.png": {
			"frame": {
				"x": 877,
				"y": 702,
				"w": 74,
				"h": 28
			},
			"rotated": false,
			"trimmed": true,
			"spriteSourceSize": {
				"x": 0,
				"y": 9,
				"w": 74,
				"h": 28
			},
			"sourceSize": {
				"w": 86,
				"h": 50
			}
		},
		"mouth_outro_2.png": {
			"frame": {
				"x": 877,
				"y": 610,
				"w": 80,
				"h": 47
			},
			"rotated": false,
			"trimmed": true,
			"spriteSourceSize": {
				"x": 5,
				"y": 3,
				"w": 80,
				"h": 47
			},
			"sourceSize": {
				"w": 86,
				"h": 50
			}
		},
		"mouth_outro_3.png": {
			"frame": {
				"x": 877,
				"y": 659,
				"w": 79,
				"h": 41
			},
			"rotated": false,
			"trimmed": true,
			"spriteSourceSize": {
				"x": 4,
				"y": 1,
				"w": 79,
				"h": 41
			},
			"sourceSize": {
				"w": 86,
				"h": 50
			}
		},
		"mouth_outro_4.png": {
			"frame": {
				"x": 877,
				"y": 830,
				"w": 15,
				"h": 41
			},
			"rotated": false,
			"trimmed": true,
			"spriteSourceSize": {
				"x": 39,
				"y": 9,
				"w": 15,
				"h": 41
			},
			"sourceSize": {
				"w": 86,
				"h": 50
			}
		},
		"mouth_outro_5.png": {
			"frame": {
				"x": 894,
				"y": 830,
				"w": 34,
				"h": 32
			},
			"rotated": false,
			"trimmed": true,
			"spriteSourceSize": {
				"x": 32,
				"y": 7,
				"w": 34,
				"h": 32
			},
			"sourceSize": {
				"w": 86,
				"h": 50
			}
		},
		"mouth1.png": {
			"frame": {
				"x": 877,
				"y": 809,
				"w": 48,
				"h": 19
			},
			"rotated": false,
			"trimmed": true,
			"spriteSourceSize": {
				"x": 0,
				"y": 7,
				"w": 48,
				"h": 19
			},
			"sourceSize": {
				"w": 57,
				"h": 34
			}
		},
		"mouth2.png": {
			"frame": {
				"x": 877,
				"y": 732,
				"w": 53,
				"h": 31
			},
			"rotated": false,
			"trimmed": true,
			"spriteSourceSize": {
				"x": 3,
				"y": 3,
				"w": 53,
				"h": 31
			},
			"sourceSize": {
				"w": 57,
				"h": 34
			}
		},
		"mouth3.png": {
			"frame": {
				"x": 877,
				"y": 765,
				"w": 52,
				"h": 29
			},
			"rotated": false,
			"trimmed": true,
			"spriteSourceSize": {
				"x": 2,
				"y": 0,
				"w": 52,
				"h": 29
			},
			"sourceSize": {
				"w": 57,
				"h": 34
			}
		},
		"mouth4.png": {
			"frame": {
				"x": 953,
				"y": 702,
				"w": 10,
				"h": 27
			},
			"rotated": false,
			"trimmed": true,
			"spriteSourceSize": {
				"x": 25,
				"y": 7,
				"w": 10,
				"h": 27
			},
			"sourceSize": {
				"w": 57,
				"h": 34
			}
		},
		"mouth5.png": {
			"frame": {
				"x": 932,
				"y": 732,
				"w": 23,
				"h": 21
			},
			"rotated": false,
			"trimmed": true,
			"spriteSourceSize": {
				"x": 20,
				"y": 6,
				"w": 23,
				"h": 21
			},
			"sourceSize": {
				"w": 57,
				"h": 34
			}
		},
		"outro_face1.png": {
			"frame": {
				"x": 707,
				"y": 306,
				"w": 259,
				"h": 302
			},
			"rotated": false,
			"trimmed": true,
			"spriteSourceSize": {
				"x": 0,
				"y": 0,
				"w": 259,
				"h": 302
			},
			"sourceSize": {
				"w": 259,
				"h": 302
			}
		},
		"outro_face2.png": {
			"frame": {
				"x": 707,
				"y": 2,
				"w": 259,
				"h": 302
			},
			"rotated": false,
			"trimmed": true,
			"spriteSourceSize": {
				"x": 0,
				"y": 0,
				"w": 259,
				"h": 302
			},
			"sourceSize": {
				"w": 259,
				"h": 302
			}
		},
		"speech-bubble.png": {
			"frame": {
				"x": 2,
				"y": 2,
				"w": 703,
				"h": 406
			},
			"rotated": false,
			"trimmed": true,
			"spriteSourceSize": {
				"x": 0,
				"y": 0,
				"w": 703,
				"h": 406
			},
			"sourceSize": {
				"w": 703,
				"h": 406
			}
		}
	},
	"meta": {
		"app": "http://www.mokgames.com/texturepacker/",
		"version": "1.0",
		"image": "sprite_playground_1_2_1.png",
		"format": "RGBA8888",
		"size": {
			"w": 1024,
			"h": 2048
		},
		"scale": 1
	}
}