{
    "frames": {

        "sara_blow1.png": {
            "frame": {
                "x": 2,
                "y": 817,
                "w": 424,
                "h": 633
            },
            "rotated": false,
            "trimmed": true,
            "spriteSourceSize": {
                "x": 190,
                "y": 180,
                "w": 424,
                "h": 633
            },
            "sourceSize": {
                "w": 688,
                "h": 813
            }
        },
        "sara_blow2.png": {
            "frame": {
                "x": 2,
                "y": 2,
                "w": 378,
                "h": 813
            },
            "rotated": false,
            "trimmed": true,
            "spriteSourceSize": {
                "x": 1,
                "y": 0,
                "w": 378,
                "h": 813
            },
            "sourceSize": {
                "w": 688,
                "h": 813
            }
        },
        "sara_blow3.png": {
            "frame": {
                "x": 382,
                "y": 2,
                "w": 346,
                "h": 727
            },
            "rotated": false,
            "trimmed": true,
            "spriteSourceSize": {
                "x": 190,
                "y": 86,
                "w": 346,
                "h": 727
            },
            "sourceSize": {
                "w": 688,
                "h": 813
            }
        },
        "sara_blow4.png": {
            "frame": {
                "x": 2,
                "y": 1452,
                "w": 497,
                "h": 541
            },
            "rotated": false,
            "trimmed": true,
            "spriteSourceSize": {
                "x": 191,
                "y": 272,
                "w": 497,
                "h": 541
            },
            "sourceSize": {
                "w": 688,
                "h": 813
            }
        }
    },
    "meta": {
        "app": "http://www.mokgames.com/texturepacker/",
        "version": "1.0",
        "image": "sprite_fb_4_2.png",
        "format": "RGBA8888",
        "size": {
            "w": 1024,
            "h": 2048
        },
        "scale": 1
    }
}