{
	"frames": {

		"textbox.png": {
			"frame": {
				"x": 722,
				"y": 526,
				"w": 170,
				"h": 108
			},
			"rotated": false,
			"trimmed": true,
			"spriteSourceSize": {
				"x": 0,
				"y": 0,
				"w": 170,
				"h": 108
			},
			"sourceSize": {
				"w": 170,
				"h": 108
			}
		},
		"oversikt_stad_1024.png": {
			"frame": {
				"x": 722,
				"y": 2,
				"w": 174,
				"h": 173
			},
			"rotated": false,
			"trimmed": true,
			"spriteSourceSize": {
				"x": 0,
				"y": 1,
				"w": 174,
				"h": 173
			},
			"sourceSize": {
				"w": 174,
				"h": 174
			}
		},
		"mouth_3.png": {
			"frame": {
				"x": 813,
				"y": 636,
				"w": 43,
				"h": 20
			},
			"rotated": false,
			"trimmed": true,
			"spriteSourceSize": {
				"x": 1,
				"y": 0,
				"w": 43,
				"h": 20
			},
			"sourceSize": {
				"w": 44,
				"h": 20
			}
		},
		"mouth_2.png": {
			"frame": {
				"x": 722,
				"y": 636,
				"w": 44,
				"h": 31
			},
			"rotated": false,
			"trimmed": true,
			"spriteSourceSize": {
				"x": 0,
				"y": 0,
				"w": 44,
				"h": 31
			},
			"sourceSize": {
				"w": 45,
				"h": 31
			}
		},
		"mouth_1.png": {
			"frame": {
				"x": 768,
				"y": 636,
				"w": 43,
				"h": 20
			},
			"rotated": false,
			"trimmed": true,
			"spriteSourceSize": {
				"x": 1,
				"y": 0,
				"w": 43,
				"h": 20
			},
			"sourceSize": {
				"w": 44,
				"h": 20
			}
		},
		"girl_explaining_exercise.png": {
			"frame": {
				"x": 2,
				"y": 2,
				"w": 377,
				"h": 407
			},
			"rotated": false,
			"trimmed": true,
			"spriteSourceSize": {
				"x": 0,
				"y": 0,
				"w": 377,
				"h": 407
			},
			"sourceSize": {
				"w": 377,
				"h": 407
			}
		},
		"fb_9.png": {
			"frame": {
				"x": 178,
				"y": 483,
				"w": 174,
				"h": 198
			},
			"rotated": false,
			"trimmed": true,
			"spriteSourceSize": {
				"x": 0,
				"y": 0,
				"w": 174,
				"h": 198
			},
			"sourceSize": {
				"w": 174,
				"h": 198
			}
		},
		"fb_8.png": {
			"frame": {
				"x": 2,
				"y": 483,
				"w": 174,
				"h": 200
			},
			"rotated": false,
			"trimmed": true,
			"spriteSourceSize": {
				"x": 0,
				"y": 0,
				"w": 174,
				"h": 200
			},
			"sourceSize": {
				"w": 174,
				"h": 200
			}
		},
		"fb_7.png": {
			"frame": {
				"x": 188,
				"y": 685,
				"w": 173,
				"h": 193
			},
			"rotated": false,
			"trimmed": true,
			"spriteSourceSize": {
				"x": 0,
				"y": 1,
				"w": 173,
				"h": 193
			},
			"sourceSize": {
				"w": 173,
				"h": 194
			}
		},
		"fb_6.png": {
			"frame": {
				"x": 381,
				"y": 189,
				"w": 174,
				"h": 184
			},
			"rotated": false,
			"trimmed": true,
			"spriteSourceSize": {
				"x": 0,
				"y": 0,
				"w": 174,
				"h": 184
			},
			"sourceSize": {
				"w": 174,
				"h": 184
			}
		},
		"fb_5.png": {
			"frame": {
				"x": 381,
				"y": 375,
				"w": 174,
				"h": 183
			},
			"rotated": false,
			"trimmed": true,
			"spriteSourceSize": {
				"x": 0,
				"y": 0,
				"w": 174,
				"h": 183
			},
			"sourceSize": {
				"w": 174,
				"h": 183
			}
		},
		"fb_4.png": {
			"frame": {
				"x": 381,
				"y": 2,
				"w": 174,
				"h": 185
			},
			"rotated": false,
			"trimmed": true,
			"spriteSourceSize": {
				"x": 0,
				"y": 0,
				"w": 174,
				"h": 185
			},
			"sourceSize": {
				"w": 174,
				"h": 185
			}
		},
		"fb_3.png": {
			"frame": {
				"x": 381,
				"y": 560,
				"w": 173,
				"h": 182
			},
			"rotated": false,
			"trimmed": true,
			"spriteSourceSize": {
				"x": 0,
				"y": 0,
				"w": 173,
				"h": 182
			},
			"sourceSize": {
				"w": 173,
				"h": 182
			}
		},
		"fb_2.png": {
			"frame": {
				"x": 722,
				"y": 352,
				"w": 174,
				"h": 172
			},
			"rotated": false,
			"trimmed": true,
			"spriteSourceSize": {
				"x": 0,
				"y": 0,
				"w": 174,
				"h": 172
			},
			"sourceSize": {
				"w": 174,
				"h": 172
			}
		},
		"fb_1.png": {
			"frame": {
				"x": 722,
				"y": 177,
				"w": 174,
				"h": 173
			},
			"rotated": false,
			"trimmed": true,
			"spriteSourceSize": {
				"x": 0,
				"y": 1,
				"w": 174,
				"h": 173
			},
			"sourceSize": {
				"w": 174,
				"h": 174
			}
		},
		"fb_0.png": {
			"frame": {
				"x": 557,
				"y": 2,
				"w": 163,
				"h": 175
			},
			"rotated": false,
			"trimmed": true,
			"spriteSourceSize": {
				"x": 0,
				"y": 1,
				"w": 163,
				"h": 175
			},
			"sourceSize": {
				"w": 163,
				"h": 176
			}
		},
		"arm_pointing_up.png": {
			"frame": {
				"x": 2,
				"y": 685,
				"w": 184,
				"h": 196
			},
			"rotated": false,
			"trimmed": true,
			"spriteSourceSize": {
				"x": 0,
				"y": 0,
				"w": 184,
				"h": 196
			},
			"sourceSize": {
				"w": 184,
				"h": 197
			}
		},
		"arm_pointing_side.png": {
			"frame": {
				"x": 2,
				"y": 411,
				"w": 261,
				"h": 70
			},
			"rotated": false,
			"trimmed": true,
			"spriteSourceSize": {
				"x": 0,
				"y": 0,
				"w": 261,
				"h": 70
			},
			"sourceSize": {
				"w": 261,
				"h": 70
			}
		}
	},
	"meta": {
		"app": "http://www.mokgames.com/texturepacker/",
		"version": "1.0",
		"image": "sprite_5_2.png",
		"format": "RGBA8888",
		"size": {
			"w": 1024,
			"h": 1024
		},
		"scale": 1
	}
}
