{
	"frames": {

		"mr_1.png": {
			"frame": {
				"x": 2,
				"y": 2,
				"w": 1563,
				"h": 183
			},
			"rotated": false,
			"trimmed": true,
			"spriteSourceSize": {
				"x": 0,
				"y": 0,
				"w": 1563,
				"h": 183
			},
			"sourceSize": {
				"w": 1563,
				"h": 183
			}
		},
		"mr_9.png": {
			"frame": {
				"x": 1273,
				"y": 372,
				"w": 289,
				"h": 183
			},
			"rotated": false,
			"trimmed": true,
			"spriteSourceSize": {
				"x": 1261,
				"y": 0,
				"w": 289,
				"h": 183
			},
			"sourceSize": {
				"w": 1563,
				"h": 183
			}
		},
		"mr_3.png": {
			"frame": {
				"x": 2,
				"y": 372,
				"w": 1269,
				"h": 183
			},
			"rotated": false,
			"trimmed": true,
			"spriteSourceSize": {
				"x": 291,
				"y": 0,
				"w": 1269,
				"h": 183
			},
			"sourceSize": {
				"w": 1563,
				"h": 183
			}
		},
		"mr_10.png": {
			"frame": {
				"x": 1431,
				"y": 187,
				"w": 120,
				"h": 181
			},
			"rotated": false,
			"trimmed": true,
			"spriteSourceSize": {
				"x": 1440,
				"y": 0,
				"w": 120,
				"h": 181
			},
			"sourceSize": {
				"w": 1563,
				"h": 183
			}
		},
		"mr_11.png": {
			"frame": {
				"x": 795,
				"y": 927,
				"w": 218,
				"h": 183
			},
			"rotated": false,
			"trimmed": false,
			"spriteSourceSize": {
				"x": 0,
				"y": 0,
				"w": 218,
				"h": 183
			},
			"sourceSize": {
				"w": 218,
				"h": 183
			}
		},
		"mr_2.png": {
			"frame": {
				"x": 2,
				"y": 187,
				"w": 1427,
				"h": 183
			},
			"rotated": false,
			"trimmed": true,
			"spriteSourceSize": {
				"x": 132,
				"y": 0,
				"w": 1427,
				"h": 183
			},
			"sourceSize": {
				"w": 1563,
				"h": 183
			}
		},
		"mr_7.png": {
			"frame": {
				"x": 947,
				"y": 742,
				"w": 616,
				"h": 183
			},
			"rotated": false,
			"trimmed": true,
			"spriteSourceSize": {
				"x": 937,
				"y": 0,
				"w": 616,
				"h": 183
			},
			"sourceSize": {
				"w": 1563,
				"h": 183
			}
		},
		"mr_8.png": {
			"frame": {
				"x": 1104,
				"y": 557,
				"w": 447,
				"h": 183
			},
			"rotated": false,
			"trimmed": true,
			"spriteSourceSize": {
				"x": 1111,
				"y": 0,
				"w": 447,
				"h": 183
			},
			"sourceSize": {
				"w": 1563,
				"h": 183
			}
		},
		"mr_4.png": {
			"frame": {
				"x": 2,
				"y": 557,
				"w": 1100,
				"h": 183
			},
			"rotated": false,
			"trimmed": true,
			"spriteSourceSize": {
				"x": 451,
				"y": 0,
				"w": 1100,
				"h": 183
			},
			"sourceSize": {
				"w": 1563,
				"h": 183
			}
		},
		"mr_5.png": {
			"frame": {
				"x": 2,
				"y": 742,
				"w": 943,
				"h": 183
			},
			"rotated": false,
			"trimmed": true,
			"spriteSourceSize": {
				"x": 611,
				"y": 0,
				"w": 943,
				"h": 183
			},
			"sourceSize": {
				"w": 1563,
				"h": 183
			}
		},
		"mr_6.png": {
			"frame": {
				"x": 2,
				"y": 927,
				"w": 791,
				"h": 183
			},
			"rotated": false,
			"trimmed": true,
			"spriteSourceSize": {
				"x": 767,
				"y": 0,
				"w": 791,
				"h": 183
			},
			"sourceSize": {
				"w": 1563,
				"h": 183
			}
		}
	},
	"meta": {
		"app": "http://www.mokgames.com/texturepacker/",
		"version": "1.0",
		"image": "marching_robots.png",
		"format": "RGBA8888",
		"size": {
			"w": 2048,
			"h": 2048
		},
		"scale": 1
	}
}