{
	"frames": {

		"arms_1.png": {
			"frame": {
				"x": 1586,
				"y": 481,
				"w": 202,
				"h": 126
			},
			"rotated": false,
			"trimmed": true,
			"spriteSourceSize": {
				"x": 53,
				"y": 17,
				"w": 202,
				"h": 126
			},
			"sourceSize": {
				"w": 293,
				"h": 144
			}
		},
		"arms_2.png": {
			"frame": {
				"x": 2,
				"y": 1619,
				"w": 292,
				"h": 58
			},
			"rotated": false,
			"trimmed": true,
			"spriteSourceSize": {
				"x": 0,
				"y": 4,
				"w": 292,
				"h": 58
			},
			"sourceSize": {
				"w": 293,
				"h": 144
			}
		},
		"arms_3.png": {
			"frame": {
				"x": 1586,
				"y": 378,
				"w": 215,
				"h": 101
			},
			"rotated": false,
			"trimmed": true,
			"spriteSourceSize": {
				"x": 27,
				"y": 0,
				"w": 215,
				"h": 101
			},
			"sourceSize": {
				"w": 293,
				"h": 144
			}
		},
		"blue_figure_0.png": {
			"frame": {
				"x": 1353,
				"y": 986,
				"w": 231,
				"h": 490
			},
			"rotated": false,
			"trimmed": true,
			"spriteSourceSize": {
				"x": 8,
				"y": 69,
				"w": 231,
				"h": 490
			},
			"sourceSize": {
				"w": 240,
				"h": 559
			}
		},
		"blue_figure_1.png": {
			"frame": {
				"x": 1353,
				"y": 494,
				"w": 231,
				"h": 490
			},
			"rotated": false,
			"trimmed": true,
			"spriteSourceSize": {
				"x": 8,
				"y": 69,
				"w": 231,
				"h": 490
			},
			"sourceSize": {
				"w": 240,
				"h": 559
			}
		},
		"blue_figure_2.png": {
			"frame": {
				"x": 1353,
				"y": 2,
				"w": 231,
				"h": 490
			},
			"rotated": false,
			"trimmed": true,
			"spriteSourceSize": {
				"x": 8,
				"y": 69,
				"w": 231,
				"h": 490
			},
			"sourceSize": {
				"w": 240,
				"h": 559
			}
		},
		"blue_figure_happy.png": {
			"frame": {
				"x": 248,
				"y": 2,
				"w": 198,
				"h": 559
			},
			"rotated": false,
			"trimmed": true,
			"spriteSourceSize": {
				"x": 0,
				"y": 0,
				"w": 198,
				"h": 559
			},
			"sourceSize": {
				"w": 198,
				"h": 559
			}
		},
		"blue_figure_intro_1.png": {
			"frame": {
				"x": 448,
				"y": 2,
				"w": 406,
				"h": 526
			},
			"rotated": false,
			"trimmed": true,
			"spriteSourceSize": {
				"x": 55,
				"y": 0,
				"w": 406,
				"h": 526
			},
			"sourceSize": {
				"w": 461,
				"h": 563
			}
		},
		"blue_figure_intro_2.png": {
			"frame": {
				"x": 2,
				"y": 563,
				"w": 406,
				"h": 526
			},
			"rotated": false,
			"trimmed": true,
			"spriteSourceSize": {
				"x": 55,
				"y": 0,
				"w": 406,
				"h": 526
			},
			"sourceSize": {
				"w": 461,
				"h": 563
			}
		},
		"blue_figure_intro_3.png": {
			"frame": {
				"x": 2,
				"y": 1091,
				"w": 353,
				"h": 526
			},
			"rotated": false,
			"trimmed": true,
			"spriteSourceSize": {
				"x": 0,
				"y": 0,
				"w": 353,
				"h": 526
			},
			"sourceSize": {
				"w": 461,
				"h": 563
			}
		},
		"blue_figure_intro_4.png": {
			"frame": {
				"x": 410,
				"y": 563,
				"w": 353,
				"h": 526
			},
			"rotated": false,
			"trimmed": true,
			"spriteSourceSize": {
				"x": 0,
				"y": 0,
				"w": 353,
				"h": 526
			},
			"sourceSize": {
				"w": 461,
				"h": 563
			}
		},
		"blue_figure_spring.png": {
			"frame": {
				"x": 1586,
				"y": 609,
				"w": 136,
				"h": 135
			},
			"rotated": false,
			"trimmed": true,
			"spriteSourceSize": {
				"x": 0,
				"y": 0,
				"w": 136,
				"h": 135
			},
			"sourceSize": {
				"w": 136,
				"h": 135
			}
		},
		"feedback.png": {
			"frame": {
				"x": 1724,
				"y": 609,
				"w": 63,
				"h": 97
			},
			"rotated": false,
			"trimmed": true,
			"spriteSourceSize": {
				"x": 0,
				"y": 0,
				"w": 63,
				"h": 97
			},
			"sourceSize": {
				"w": 63,
				"h": 97
			}
		},
		"interactive.png": {
			"frame": {
				"x": 1586,
				"y": 2,
				"w": 231,
				"h": 374
			},
			"rotated": false,
			"trimmed": false,
			"spriteSourceSize": {
				"x": 0,
				"y": 0,
				"w": 231,
				"h": 374
			},
			"sourceSize": {
				"w": 231,
				"h": 374
			}
		},
		"mouth_yellow_1.png": {
			"frame": {
				"x": 1768,
				"y": 708,
				"w": 42,
				"h": 25
			},
			"rotated": false,
			"trimmed": true,
			"spriteSourceSize": {
				"x": 0,
				"y": 0,
				"w": 42,
				"h": 25
			},
			"sourceSize": {
				"w": 42,
				"h": 25
			}
		},
		"mouth_yellow_2.png": {
			"frame": {
				"x": 1724,
				"y": 708,
				"w": 42,
				"h": 34
			},
			"rotated": false,
			"trimmed": true,
			"spriteSourceSize": {
				"x": 0,
				"y": 0,
				"w": 42,
				"h": 34
			},
			"sourceSize": {
				"w": 42,
				"h": 34
			}
		},
		"pink_figure_0.png": {
			"frame": {
				"x": 1120,
				"y": 502,
				"w": 231,
				"h": 498
			},
			"rotated": false,
			"trimmed": true,
			"spriteSourceSize": {
				"x": 0,
				"y": 0,
				"w": 231,
				"h": 498
			},
			"sourceSize": {
				"w": 231,
				"h": 498
			}
		},
		"pink_figure_1.png": {
			"frame": {
				"x": 1120,
				"y": 2,
				"w": 231,
				"h": 498
			},
			"rotated": false,
			"trimmed": true,
			"spriteSourceSize": {
				"x": 0,
				"y": 0,
				"w": 231,
				"h": 498
			},
			"sourceSize": {
				"w": 231,
				"h": 498
			}
		},
		"pink_figure_2.png": {
			"frame": {
				"x": 621,
				"y": 1091,
				"w": 231,
				"h": 498
			},
			"rotated": false,
			"trimmed": true,
			"spriteSourceSize": {
				"x": 0,
				"y": 0,
				"w": 231,
				"h": 498
			},
			"sourceSize": {
				"w": 231,
				"h": 498
			}
		},
		"yellow_body.png": {
			"frame": {
				"x": 856,
				"y": 1032,
				"w": 260,
				"h": 513
			},
			"rotated": false,
			"trimmed": true,
			"spriteSourceSize": {
				"x": 0,
				"y": 0,
				"w": 260,
				"h": 513
			},
			"sourceSize": {
				"w": 261,
				"h": 513
			}
		},
		"yellow_figure_0.png": {
			"frame": {
				"x": 856,
				"y": 2,
				"w": 262,
				"h": 513
			},
			"rotated": false,
			"trimmed": true,
			"spriteSourceSize": {
				"x": 1,
				"y": 47,
				"w": 262,
				"h": 513
			},
			"sourceSize": {
				"w": 300,
				"h": 560
			}
		},
		"yellow_figure_1.png": {
			"frame": {
				"x": 856,
				"y": 517,
				"w": 262,
				"h": 513
			},
			"rotated": false,
			"trimmed": true,
			"spriteSourceSize": {
				"x": 1,
				"y": 47,
				"w": 262,
				"h": 513
			},
			"sourceSize": {
				"w": 300,
				"h": 560
			}
		},
		"yellow_figure_2.png": {
			"frame": {
				"x": 357,
				"y": 1091,
				"w": 262,
				"h": 513
			},
			"rotated": false,
			"trimmed": true,
			"spriteSourceSize": {
				"x": 1,
				"y": 47,
				"w": 262,
				"h": 513
			},
			"sourceSize": {
				"w": 300,
				"h": 560
			}
		},
		"pink_figure_happy.png": {
			"frame": {
				"x": 1120,
				"y": 1002,
				"w": 220,
				"h": 498
			},
			"rotated": false,
			"trimmed": true,
			"spriteSourceSize": {
				"x": 7,
				"y": 0,
				"w": 220,
				"h": 498
			},
			"sourceSize": {
				"w": 231,
				"h": 498
			}
		},
		"yellow_figure_happy.png": {
			"frame": {
				"x": 2,
				"y": 2,
				"w": 244,
				"h": 559
			},
			"rotated": false,
			"trimmed": true,
			"spriteSourceSize": {
				"x": 53,
				"y": 0,
				"w": 244,
				"h": 559
			},
			"sourceSize": {
				"w": 300,
				"h": 560
			}
		}
	},
	"meta": {
		"app": "http://www.mokgames.com/texturepacker/",
		"version": "1.0",
		"image": "sprite_toystore_1_2.png",
		"format": "RGBA8888",
		"size": {
			"w": 2048,
			"h": 2048
		},
		"scale": 1
	}
}